…
  read_csv(
           path_3_data) %>% 
              janitor::clean_names() %>% 
                select(2:18, 20, 23) %>%
  mutate(
    entry = recode(entry, "YES" = TRUE, "NO" = FALSE))
```

``` r
NYC_station = distinct(NYC_df, line, station_name)
distinct(NYC_df, station_name)
```

    ## # A tibble: 356 x 1
    ##    station_name            
    ##    <chr>                   
    ##  1 25th St                 
    ##  2 36th St                 
    ##  3 45th St                 
    ##  4 53rd St                 
    ##  5 59th St                 
    ##  6 77th St                 
    ##  7 86th St                 
    ##  8 95th St                 
    ##  9 9th St                  
    ## 10 Atlantic Av-Barclays Ctr
    ## # ... with 346 more rows
…
